{
    "culture": "vi",
  "texts": {
    "Welcome_Title": "Chào mừng bạn",
    "Welcome_Text": "Đây là một mẫu khởi động ứng dụng lớp đơn, tối giản cho ABP Framework.",
    "Menu:Home": "Trang chủ",
    "Menu:Dashboard": "Bảng điều khiển",
    "Menu:CashCategories": "Danh mục",
    "Menu:Expenses": "Chi tiêu",
    "Menu:Depts": "Khoản nợ",
    "Menu:Loans": "Cho vay",
    "Menu:BankingNotes": "Ghi chú ngân hàng",
    "Menu:Wallets": "Ví tiền",
    "Permission:Create": "Tạo mới",
    "Permission:Edit": "Cập nhật",
    "Permission:Delete": "Xóa",
    "Permission:CashCategories": "Danh mục chi tiêu",
    "Permission:Expenses": "Chi tiêu",
    "Permission:Depts": "Vay mượn",
    "Permission:BankingNotes": "Ghi chú ngân hàng",
    "Generate_Report": "Tạo báo cáo",
    "SuccessfullyCreated": "Thêm mới thành công.",
    "SuccessfullyUpdated": "Cập nhật thành công.",
    "SuccessfullyDeleted": "Xóa bỏ thành công.",
    "AreYouSure": "Bạn có chắc chắn?",
    "AreYouSureToDelete": "Bạn sẽ xóa dữ liệu này?",
    "Search": "Tìm kiếm",
    "Name": "Tên",
    "Description": "Mô tả",
    "Creation_Time": "Thời gian tạo",
    "Actions": "Hành động",
    "Setting":  "Cài đặt",
    "Create": "Tạo mới",
    "Create_Transactions": "Tạo mới giao dịch",
    "Edit": "Cập nhật",
    "Delete": "Xóa",
    "Status": "Trạng thái",
    "Price": "Giá tiền",
    "Quantity": "Số lượng",
    "Category_Name": "Tên danh mục",
    "Date": "Ngày",
    "User_Name": "Tên người tạo",
    "CreateModal": "Tạo mới",
    "Place": "Nơi rút tiền",
    "Banking_Receive": "Ngân hàng đích",
    "Receiver": "Người nhận",
    "Remitter": "Người chuyển",
    "Transaction_Type": "Loại giao dịch",
    "Amount": "Tổng giao dịch",
    "Money": "Tổng tiền trong tài khoản",
    "Transactions": "Danh sách giao dịch",
    "Banking": "Danh sách ngân hàng",
    "BankingName": "Tên ngân hàng",
    "BankingLogo": "Logo ngân hàng",
    "TransactionType": "Loại giao dịch",
    "Enum:Status.1": "Ẩn",
    "Enum:Status.0": "Hiển thị",
    "Enum:DeptStatusEnum.0": "Chưa thanh toán",
    "Enum:DeptStatusEnum.1": "Đã thanh toán",
    "Enum:TransactionTypeEnum.1": "Rút tiền",
    "Enum:TransactionTypeEnum.2": "Chuyển tiền",
    "Enum:TransactionTypeEnum.3": "Nhận tiền"
  }
}
